{
    "name": "Viability",
    "alias": "viability",
    "description": "",
    "keywords": [],
    "active": 1,
    "order": 0,
    "providers": [
        "Modules\\Viability\\Providers\\ViabilityServiceProvider"
    ],
    "aliases": {},
    "files": [],
    "requires": []
}
